[
  {
    "title": "مقدمه",
    "slug": "intro",
    "items": [
      {
        "title": "ناکس چیست؟",
        "slug": "whatIsNuxt",
        "items": [
          {
            "title": "معرفی",
            "slug": "intro"
          },
          {
            "title": "نصب ناکس جی اس",
            "slug": "setupNuxtJS"
          },
          {
            "title": "پردازش سمت سرور (SSR)",
            "slug": "SSR"
          },
          {
            "title": "برنامه ی تک صفحه (SPA)",
            "slug": "SPA"
          },
          {
            "title": "وب-اپ (PWA)",
            "slug": "PWA"
          }
        ]
      }
    ]
  },
  {
    "title": "مفاهیم",
    "slug": "concept",
    "items": [
      {
        "icon": "mdi-apps",
        "title": "ساختارپوشه‌ها",
        "slug": "structure",
        "items": [
          {
            "title": "Assets",
            "slug": "Assets"
          },
          {
            "title": "Components",
            "slug": "Components"
          },
          {
            "title": "Layouts",
            "slug": "Layouts"
          },
          {
            "title": "Middleware",
            "slug": "Middleware"
          },
          {
            "title": "Pages",
            "slug": "Pages"
          },
          {
            "title": "Plugins",
            "slug": "Plugins"
          },
          {
            "title": "Static",
            "slug": "Static"
          },
          {
            "title": "Store",
            "slug": "Store"
          },
          {
            "title": "nuxt.config.js",
            "slug": "nuxtConfigJs"
          },
          {
            "title": "Store",
            "slug": "Store"
          },
          {
            "title": "Aliases",
            "slug": "Aliases"
          }
        ]
      },
      {
        "icon": "mdi-apps",
        "title": "لایه ها",
        "slug": "layout",
        "items": [
          {
            "title": "لایه‌ها در ناکس",
            "slug": "intro"
          }
        ]
      },
      {
        "icon": "mdi-chart-bubble",
        "title": "صفحات",
        "slug": "page",
        "items": [
          {
            "title": "ساختار صفحه در ناکس",
            "slug": "intro"
          }
        ]
      },
      {
        "icon": "mdi-chart-bubble",
        "title": "روتینگ",
        "slug": "routing",
        "items": [
          {
            "title": "روتینگ ساده",
            "slug": "basicRouting"
          },
          {
            "title": "روتینگ دینامیک",
            "slug": "dynamicRouting"
          },
          {
            "title": "روتینگ تودرتو",
            "slug": "nestedRouting"
          },
          {
            "title": "روتینگ تودرتو دینامیک",
            "slug": "dynamicNestedRouting"
          },
          {
            "title": "دسترسی به پارامترهای روت",
            "slug": "routeParams"
          }
        ]
      },
      {
        "icon": "mdi-chart-bubble",
        "title": "کامپوننت",
        "slug": "component",
        "items": [
          {
            "title": "معرفی کامپوننت ها در ناکس",
            "slug": "intro"
          },
          {
            "title": "ساخت کامپوننت جدید",
            "slug": "buildComponent"
          },
          {
            "title": "استفاده از کامپوننت ها",
            "slug": "importComponent"
          },
          {
            "title": "تزریق دیتا به کامپوننت (یک طرفه) با props",
            "slug": "props"
          },
          {
            "title": "گرفتن دیتا از کامپوننت (یک طرفه) با $emmit",
            "slug": "emiter"
          },
          {
            "title": "تزریق و گرفتن همزمان دیتا (دو طرفه) با v-model",
            "slug": "vModel"
          }
        ]
      },
      {
        "icon": "mdi-chart-bubble",
        "title": "استور",
        "slug": "store"
      }
    ]
  },
  {
    "title": "صفحات",
    "slug": "page",
    "items": [
      {
        "icon": "mdi-apps",
        "title": "قالب ها",
        "slug": "template"
      },
      {
        "icon": "mdi-apps",
        "title": "نمایش داده ها",
        "slug": "displayData"
      },
      {
        "icon": "mdi-apps",
        "title": "مراحل لود صفحه",
        "slug": "pageLifeCycle"
      },
      {
        "icon": "mdi-apps",
        "title": "دیتای اسینک",
        "slug": "asyncData"
      },
      {
        "icon": "mdi-chart-bubble",
        "title": "فِچ کردن دیتا",
        "slug": "fetch"
      },
      {
        "icon": "mdi-chart-bubble",
        "title": "مدیریت تگ head صفحه",
        "slug": "head"
      }
    ]
  },
  {
    "title": " پیشرفته",
    "slug": "advanced",
    "items": [
      {
        "icon": "mdi-chart-bubble",
        "title": "پلاگین",
        "slug": "component"
      },
      {
        "icon": "mdi-chart-bubble",
        "title": "میدلویر",
        "slug": "middleware"
      },
      {
        "icon": "mdi-chart-bubble",
        "title": "کانتکس",
        "slug": "context"
      },
      {
        "icon": "mdi-chart-bubble",
        "title": "اکسیوس",
        "slug": "axios"
      },
      {
        "icon": "mdi-chart-bubble",
        "title": "PWA - پی دبلیو ای",
        "slug": "pwa"
      },
      {
        "icon": "mdi-chart-bubble",
        "title": "auth - سیستم هویت ",
        "slug": "pwa"
      },
      {
        "icon": "mdi-chart-bubble",
        "title": "استاتیک ها",
        "slug": "static"
      },
      {
        "icon": "mdi-chart-bubble",
        "title": "اَسِت ها",
        "slug": "assets"
      }
    ]
  }
]
